<?xml version="1.0" encoding="UTF-8"?>
<svg width="1001px" height="1000px" viewBox="0 0 1001 1000" version="1.1" xmlns="http://www.w3.org/2000/svg" xmlns:xlink="http://www.w3.org/1999/xlink">
    <g id="1000个上传" stroke="none" stroke-width="1" fill="none" fill-rule="evenodd">
        <g id="10" transform="translate(-3999.000000, -3850.000000)">
            <g id="编组-101" transform="translate(3999.000000, 3850.000000)">
                <rect id="矩形备份-85" x="0" y="0" width="1000" height="1000"></rect>
                <g id="E-Commerce__x2F__Shopping" transform="translate(120.000000, 38.000000)" fill-rule="nonzero">
                    <g id="gift">
                        <path d="M727.5,900 C727.5,913.8075 716.305,925 702.5,925 L55,925 C41.195,925 30,913.8075 30,900 L30,432.5 C30,418.6925 41.195,407.5 55,407.5 L702.5,407.5 C716.305,407.5 727.5,418.6925 727.5,432.5 L727.5,900 Z" id="路径" fill="#E94B35"></path>
                        <rect id="矩形" fill="#F2C500" x="30" y="612.5" width="697.5" height="120"></rect>
                        <path d="M0,292.5 L0,417.495 C0,431.245 11.25,442.5 25,442.5 L735,442.5 C748.75,442.5 760,431.245 760,417.495 L760,292.5 L0,292.5 Z" id="路径" fill="#E94B35"></path>
                        <path d="M704.99,162.955 C699.545,150.3275 683.8425,140 670.0925,140 L91.005,140 C77.255,140 61.55,150.3275 56.105,162.955 L0,292.5 L760,292.5 L704.99,162.955 Z" id="路径" fill="#C23824"></path>
                        <rect id="矩形" fill="#C23824" x="30" y="442.5" width="697.5" height="42.5"></rect>
                        <rect id="矩形" fill="#F2C500" x="312.5" y="292.5" width="140" height="632.5"></rect>
                        <polygon id="路径" fill="#F59D00" points="340.31 140 311.5025 292.5 451.7875 292.5 422.9775 140"></polygon>
                        <rect id="矩形" fill="#F59D00" x="312.5" y="442.5" width="140" height="42.5"></rect>
                        <path d="M390.795,228.6325 L378.49,189.18 C372.45,169.83 316.3525,0.005 207.1775,0.005 C180.28,0.005 153.3525,10.58 127.1425,31.46 C85.66,64.4625 83.5775,94.6525 89.1275,114.17 C103.86,165.8975 194.205,195.045 267.695,210.415 C224.81,256.42 208.1725,326.1725 207.1775,330.5325 C203.8575,344.9575 212.855,359.3025 227.26,362.6325 C229.29,363.11 231.3225,363.345 233.32,363.345 C245.4975,363.345 256.535,354.965 259.415,342.5925 C259.6875,341.415 288.5325,225.3075 351.8575,224.0225 L390.795,228.6325 Z M140.6925,99.4925 C139.495,95.3075 145.1725,85.61 160.5225,73.4025 C177.015,60.2725 192.71,53.6125 207.1775,53.6125 C251.3525,53.6125 289.5575,115.9325 311.265,163.97 C228.58,149.535 147.3925,123.0275 140.6925,99.4925 Z" id="形状" fill="#F2C500"></path>
                        <path d="M411.43,224.0225 C474.755,225.3075 503.5975,341.415 503.8725,342.5925 C506.7525,354.965 517.7875,363.345 529.9675,363.345 C531.965,363.345 533.995,363.11 536.0275,362.6325 C550.4375,359.3025 559.43,344.9575 556.11,330.5325 C555.115,326.1725 538.4775,256.42 495.5925,210.415 C569.0825,195.045 659.43,165.8975 674.1625,114.17 C679.7125,94.6525 677.63,64.4625 636.145,31.46 C609.94,10.58 583.01,0.005 556.11,0.005 C446.935,0.005 390.8375,169.83 384.7975,189.18 L372.4925,228.6325 L411.43,224.0225 Z M452.0275,163.97 C473.7325,115.9325 511.935,53.6125 556.11,53.6125 C570.5775,53.6125 586.2725,60.2725 602.765,73.4025 C618.115,85.61 623.79,95.3075 622.595,99.4925 C615.8925,123.0275 534.7075,149.535 452.0275,163.97 Z" id="形状" fill="#F2C500"></path>
                        <circle id="椭圆形" fill="#F2C500" cx="381.6425" cy="206.5775" r="44.3875"></circle>
                        <polygon id="路径" fill="#F59D00" points="312.5 612.5 283.0075 612.5 312.5 732.095"></polygon>
                        <polygon id="路径" fill="#F59D00" points="452.5 732.5 480.28 732.5 452.5 613.73"></polygon>
                        <polygon id="路径" fill="#F59D00" points="312.5 732.5 312.5 761.68 451.7875 732.5"></polygon>
                        <polygon id="路径" fill="#F59D00" points="452.5 612.5 452.5 585.235 311.5025 612.5"></polygon>
                    </g>
                </g>
            </g>
        </g>
    </g>
</svg>